module bitbucket.org/mutze5/wxfetcher

go 1.12

require (
	github.com/golang/protobuf v1.3.1
	github.com/lib/pq v1.1.1
	golang.org/x/net v0.0.0-20190311183353-d8887717615a
	google.golang.org/grpc v1.21.1
	mutong.moe/go/utils v0.0.0-20190610081353-8951beb92317
)
